<svg xmlns="http://www.w3.org/2000/svg" xmlns:xlink="http://www.w3.org/1999/xlink" width="24" height="24" viewBox="0 0 24 24">
    <defs>
        <path id="a" d="M0 0l5 5 5-5z"/>
    </defs>
    <g fill="none" fill-rule="evenodd" transform="translate(7 10)">
        <mask id="b" fill="#fff">
            <use xlink:href="#a"/>
        </mask>
        <use fill="#000" xlink:href="#a"/>
        <g mask="url(#b)">
            <path fill="#000" d="M-7-10h24v24H-7z"/>
        </g>
    </g>
</svg>
