<svg xmlns="http://www.w3.org/2000/svg" width="16" height="16" transform='rotate(180)' viewBox="0 0 16 16">
    <path fill-rule="nonzero" d="M10.586 7L8.293 4.707a1 1 0 0 1 1.414-1.414l4 4a1 1 0 0 1 0 1.414l-4 4a1 1 0 1 1-1.414-1.414L10.586 9H3a1 1 0 1 1 0-2h7.586z"/>
</svg>
